average:  100
num: 0   136
num: 1   62
num: 2   117
num: 3   113
num: 4   91
num: 5   97
num: 6   107
num: 7   88
num: 8   112
num: 9   90
Expected output dimensions: 17
average:  25.424
num: 0   34.71134020618557
num: 1   15.370689655172415
num: 2   30.272727272727273
num: 3   28.225806451612904
num: 4   23.247619047619047
num: 5   24.25
num: 6   27.24468085106383
num: 7   22.45299145299145
num: 8   28.850574712643677
num: 9   22.82
average:  15.865
num: 0   23.11340206185567
num: 1   10.155172413793103
num: 2   18.818181818181817
num: 3   17.978494623655912
num: 4   13.82857142857143
num: 5   14.5
num: 6   17.648936170212767
num: 7   14.042735042735043
num: 8   17.379310344827587
num: 9   13.1
average:  20.502
num: 0   28.391752577319586
num: 1   12.672413793103448
num: 2   24.555555555555557
num: 3   23.118279569892472
num: 4   18.266666666666666
num: 5   19.02173913043478
num: 6   22.319148936170212
num: 7   18.316239316239315
num: 8   23.137931034482758
num: 9   17.75
average:  22.535
num: 0   30.855670103092784
num: 1   13.543103448275861
num: 2   27.1010101010101
num: 3   25.043010752688172
num: 4   20.561904761904763
num: 5   21.08695652173913
num: 6   24.372340425531913
num: 7   20.11111111111111
num: 8   25.49425287356322
num: 9   19.98
dimensions: 17
the times 4
line 143.125
firing ones 22.535
firing rate 0.07797577854671281
File number:  244
Traceback (most recent call last):
  File "test_7.py", line 319, in <module>
    data = f.write(" D:%f\n" % D)
TypeError: float argument required, not list
average:  100
num: 0   136
num: 1   62
num: 2   117
num: 3   113
num: 4   91
num: 5   97
num: 6   107
num: 7   88
num: 8   112
num: 9   90
Expected output dimensions: 17
average:  25.424
num: 0   34.71134020618557
num: 1   15.370689655172415
num: 2   30.272727272727273
num: 3   28.225806451612904
num: 4   23.247619047619047
num: 5   24.25
num: 6   27.24468085106383
num: 7   22.45299145299145
num: 8   28.850574712643677
num: 9   22.82
average:  15.865
num: 0   23.11340206185567
num: 1   10.155172413793103
num: 2   18.818181818181817
num: 3   17.978494623655912
num: 4   13.82857142857143
num: 5   14.5
num: 6   17.648936170212767
num: 7   14.042735042735043
num: 8   17.379310344827587
num: 9   13.1
average:  20.502
num: 0   28.391752577319586
num: 1   12.672413793103448
num: 2   24.555555555555557
num: 3   23.118279569892472
num: 4   18.266666666666666
num: 5   19.02173913043478
num: 6   22.319148936170212
num: 7   18.316239316239315
num: 8   23.137931034482758
num: 9   17.75
average:  22.535
num: 0   30.855670103092784
num: 1   13.543103448275861
num: 2   27.1010101010101
num: 3   25.043010752688172
num: 4   20.561904761904763
num: 5   21.08695652173913
num: 6   24.372340425531913
num: 7   20.11111111111111
num: 8   25.49425287356322
num: 9   19.98
dimensions: 17
the times 4
line 143.125
firing ones 22.535
firing rate 0.07797577854671281
File number:  460
Traceback (most recent call last):
  File "test_7.py", line 319, in <module>
    data = f.write(" D:%f\n" % D)
TypeError: float argument required, not list
